{
  "project_info": {
    "project_number": "490937339911",
    "firebase_url": "https://chat-996e4.firebaseio.com",
    "project_id": "chat-996e4",
    "storage_bucket": "chat-996e4.appspot.com"
  },
  "client": [
    {
      "client_info": {
        "mobilesdk_app_id": "1:490937339911:android:b75643e0648c1ae7",
        "android_client_info": {
          "package_name": "com.mobile.c"
        }
      },
      "oauth_client": [
        {
          "client_id": "490937339911-rgu2pgnv9afeupg4fteqorlrtdmih860.apps.googleusercontent.com",
          "client_type": 3
        }
      ],
      "api_key": [
        {
          "current_key": "AIzaSyBAtAhDpSrS8m8HjPMRgmmjjT9KX86QWzw"
        }
      ],
      "services": {
        "analytics_service": {
          "status": 1
        },
        "appinvite_service": {
          "status": 1,
          "other_platform_oauth_client": []
        },
        "ads_service": {
          "status": 2
        }
      }
    }
  ],
  "configuration_version": "1"
}